…
``` r
# Distinguish articles from speeches
d_index_2 = d_index %>%
  mutate(
    speech = str_detect(title, "Speech"),
    article = str_detect(title, "Article"),
    .after = "date"
  )

# Any speech yet to be recognized?
d_index_2 %>%
  filter(speech == FALSE & article == FALSE)
```

    ## # A tibble: 42 × 5
    ##    date      speech article title                                          url  
    ##    <chr>     <lgl>  <lgl>   <chr>                                          <chr>
    ##  1 6.10.2021 FALSE  FALSE   "CE's speech in delivering \"The Chief Execut… http…
    ##  2 6.10.2021 FALSE  FALSE   "CE's speech in delivering \"The Chief Execut… http…
    ##  3 6.10.2021 FALSE  FALSE   "CE's speech in delivering \"The Chief Execut… http…
    ##  4 6.10.2021 FALSE  FALSE   "CE's speech in delivering \"The Chief Execut… http…
    ##  5 6.10.2021 FALSE  FALSE   "CE's speech in delivering \"The Chief Execut… http…
    ##  6 6.10.2021 FALSE  FALSE   "CE's speech in delivering \"The Chief Execut… http…
    ##  7 6.10.2021 FALSE  FALSE   "CE's speech in delivering \"The Chief Execut… http…
    ##  8 6.10.2021 FALSE  FALSE   "CE's speech in delivering \"The Chief Execut… http…
    ##  9 6.10.2021 FALSE  FALSE   "CE's speech in delivering \"The Chief Execut… http…
    ## 10 6.10.2021 FALSE  FALSE   "CE's speech in delivering \"The Chief Execut… http…
    ## # … with 32 more rows
…
