…
## Calculate Scores of Emotions

``` r
dict_nrc
```

    ## # A tibble: 13,872 × 2
    ##    word        sentiment
    ##    <chr>       <chr>    
    ##  1 abacus      trust    
    ##  2 abandon     fear     
    ##  3 abandon     negative 
    ##  4 abandon     sadness  
    ##  5 abandoned   anger    
    ##  6 abandoned   fear     
    ##  7 abandoned   negative 
    ##  8 abandoned   sadness  
    ##  9 abandonment anger    
    ## 10 abandonment fear     
    ## # … with 13,862 more rows
…
